{
  "crasto": [

    {
      "meal": "Almoço",
      "disp": "Aberto",
      "date": "Segunda, 18 Dez 2017",
      "sopa": "Sopa de cogumelos",
      "carne": "Lombo de porco assado com batata assada",
      "peixe": "",
      "dieta": "Seitan agridoce"
    },

    {
      "meal": "Jantar",
      "disp": "Aberto",
      "date": "Segunda, 18 Dez 2017",
      "sopa": "Sopa de alho francês",
      "carne": "",
      "peixe": "Douradinhos de pescada com macedónia de legumes",
      "dieta": ""
    },

    {
      "meal": "Almoço",
      "disp": "Aberto",
      "date": "Terça, 19 Dez 2017",
      "sopa": "Creme de legumes",
      "carne": "",
      "peixe": "Arroz de tentáculos de lula",
      "dieta": "Empadão de soja com brócolos"
    },

    {
      "meal": "Jantar",
      "disp": "Aberto",
      "date": "Terça, 19 Dez 2017",
      "sopa": "Sopa de couve lombarda",
      "carne": "",
      "peixe": "Empadão de atum",
      "dieta": ""
    },

    {
      "meal": "Almoço",
      "disp": "Aberto",
      "date": "Quarta, 20 Dez 2017",
      "sopa": "Sopa de nabiças",
      "carne": "Arroz de aves",
      "peixe": "",
      "dieta": "Cozido simples"
    },

    {
      "meal": "Jantar",
      "disp": "Aberto",
      "date": "Quarta, 20 Dez 2017",
      "sopa": "Sopa de legumes",
      "carne": "Bifes de porco de cebolada com batata cozida",
      "peixe": "Caldeirada de raia",
      "dieta": ""
    },

    {
      "meal": "Almoço",
      "disp": "Aberto",
      "date": "Quinta, 21 Dez 2017",
      "sopa": "Sopa de legumes",
      "carne": "Carne de porco à alentejana",
      "peixe": "Arroz de tentáculos",
      "dieta": "Bife de porco grelhado com batata cozida e cenoura"
    },
    {
      "meal": "Jantar",
      "disp": "Aberto",
      "date": "Quinta, 21 Dez 2017",
      "sopa": "Sopa de legumes",
      "carne": "",
      "peixe": "Maruca estufada com batata cozida",
      "dieta": ""
    },

    {
        "meal": "Almoço",
        "disp": "Encerrado",
        "date": "Sexta, 22 Dez 2017",
        "sopa": "",
        "carne": "",
        "peixe": "",
        "dieta": ""
    },
    {
      "meal": "Jantar",
      "disp": "Encerrado",
      "date": "Sexta, 22 Dez 2017",
      "sopa": "",
      "carne": "",
      "peixe": "",
      "dieta": ""
    },

    {
      "meal": "Almoço",
      "disp": "Encerrado",
      "date": "Sábado, 23 Dez 2017",
      "sopa": "",
      "carne": "",
      "peixe": "",
      "dieta": ""
    },
    {
      "meal": "Jantar",
      "disp": "Encerrado",
      "date": "Sábado, 23 Dez 2017",
      "sopa": "",
      "carne": "",
      "peixe": "",
      "dieta": ""
    }
  ]
}
